{"thumbnails":[{"levelId":"107110380","format":"gif","uploadedBy":"FlozWer","uploadedAt":1763232527463,"isModerator":false},{"levelId":"100745189","format":"webp","uploadedBy":"Robert55GD","uploadedAt":1763218916023,"isModerator":false},{"levelId":"128124214","format":"webp","uploadedBy":"FlozWer","uploadedAt":1763218913780,"isModerator":false},{"levelId":"127540093","format":"webp","uploadedBy":"FlozWer","uploadedAt":1763218854433,"isModerator":false},{"levelId":"128082328","format":"webp","uploadedBy":"FlozWer","uploadedAt":1763218814212,"isModerator":false},{"levelId":"112915492","format":"webp","uploadedBy":"FlozWer","uploadedAt":1763176810837,"isModerator":false},{"levelId":"119871101","format":"webp","uploadedBy":"FlozWer","uploadedAt":1763175954045,"isModerator":false},{"levelId":"99041912","format":"webp","uploadedBy":"Robert55GD","uploadedAt":1763174862054,"isModerator":false},{"levelId":"98972163","format":"webp","uploadedBy":"Robert55GD","uploadedAt":1763174860300,"isModerator":false},{"levelId":"98439428","format":"webp","uploadedBy":"Robert55GD","uploadedAt":1763174858547,"isModerator":false},{"levelId":"98275850","format":"webp","uploadedBy":"Robert55GD","uploadedAt":1763174856505,"isModerator":false},{"levelId":"98128088","format":"webp","uploadedBy":"Robert55GD","uploadedAt":1763174853431,"isModerator":false},{"levelId":"98090232","format":"webp","uploadedBy":"Robert55GD","uploadedAt":1763174851401,"isModerator":false},{"levelId":"98081390","format":"webp","uploadedBy":"Robert55GD","uploadedAt":1763174849547,"isModerator":false},{"levelId":"97978413","format":"webp","uploadedBy":"Robert55GD","uploadedAt":1763174847190,"isModerator":false},{"levelId":"97666660","format":"webp","uploadedBy":"Robert55GD","uploadedAt":1763174845050,"isModerator":false},{"levelId":"97459884","format":"webp","uploadedBy":"Robert55GD","uploadedAt":1763174843216,"isModerator":false},{"levelId":"96925293","format":"webp","uploadedBy":"Robert55GD","uploadedAt":1763174841137,"isModerator":false},{"levelId":"84202969","format":"webp","uploadedBy":"Robert55GD","uploadedAt":1763174839052,"isModerator":false},{"levelId":"83786418","format":"webp","uploadedBy":"Robert55GD","uploadedAt":1763174836477,"isModerator":false},{"levelId":"83652181","format":"webp","uploadedBy":"Robert55GD","uploadedAt":1763174834675,"isModerator":false},{"levelId":"80809056","format":"webp","uploadedBy":"Robert55GD","uploadedAt":1763174832850,"isModerator":false},{"levelId":"6508283","format":"webp","uploadedBy":"Robert55GD","uploadedAt":1763174830945,"isModerator":false},{"levelId":"4454123","format":"webp","uploadedBy":"Robert55GD","uploadedAt":1763174828962,"isModerator":false},{"levelId":"31280642","format":"webp","uploadedBy":"Robert55GD","uploadedAt":1763174826820,"isModerator":false},{"levelId":"27732941","format":"webp","uploadedBy":"Robert55GD","uploadedAt":1763174823256,"isModerator":false},{"levelId":"26618473","format":"webp","uploadedBy":"Robert55GD","uploadedAt":1763174817189,"isModerator":false},{"levelId":"215705","format":"webp","uploadedBy":"Robert55GD","uploadedAt":1763174815345,"isModerator":false},{"levelId":"13519","format":"webp","uploadedBy":"Robert55GD","uploadedAt":1763174811759,"isModerator":false},{"levelId":"127956128","format":"webp","uploadedBy":"Robert55GD","uploadedAt":1763174809700,"isModerator":false},{"levelId":"127917376","format":"webp","uploadedBy":"Robert55GD","uploadedAt":1763174807632,"isModerator":false},{"levelId":"127896329","format":"webp","uploadedBy":"Robert55GD","uploadedAt":1763174805404,"isModerator":false},{"levelId":"127857794","format":"webp","uploadedBy":"Robert55GD","uploadedAt":1763174803414,"isModerator":false},{"levelId":"127823828","format":"webp","uploadedBy":"Robert55GD","uploadedAt":1763174801246,"isModerator":false},{"levelId":"127793312","format":"webp","uploadedBy":"Robert55GD","uploadedAt":1763174799219,"isModerator":false},{"levelId":"127612214","format":"webp","uploadedBy":"Robert55GD","uploadedAt":1763174797287,"isModerator":false},{"levelId":"127611040","format":"webp","uploadedBy":"Robert55GD","uploadedAt":1763174795555,"isModerator":false},{"levelId":"127602122","format":"webp","uploadedBy":"Robert55GD","uploadedAt":1763174793798,"isModerator":false},{"levelId":"127283931","format":"webp","uploadedBy":"Robert55GD","uploadedAt":1763174791746,"isModerator":false},{"levelId":"126961267","format":"webp","uploadedBy":"Robert55GD","uploadedAt":1763174789932,"isModerator":false},{"levelId":"126539075","format":"webp","uploadedBy":"Robert55GD","uploadedAt":1763174788273,"isModerator":false},{"levelId":"126414641","format":"webp","uploadedBy":"Robert55GD","uploadedAt":1763174786150,"isModerator":false},{"levelId":"126251887","format":"webp","uploadedBy":"Robert55GD","uploadedAt":1763174784276,"isModerator":false},{"levelId":"125092981","format":"webp","uploadedBy":"Robert55GD","uploadedAt":1763174782311,"isModerator":false},{"levelId":"123528431","format":"webp","uploadedBy":"Robert55GD","uploadedAt":1763174780441,"isModerator":false},{"levelId":"122833143","format":"webp","uploadedBy":"Robert55GD","uploadedAt":1763174778711,"isModerator":false},{"levelId":"120679939","format":"webp","uploadedBy":"Robert55GD","uploadedAt":1763174768699,"isModerator":false},{"levelId":"120093969","format":"webp","uploadedBy":"Robert55GD","uploadedAt":1763174766733,"isModerator":false},{"levelId":"119749893","format":"webp","uploadedBy":"Robert55GD","uploadedAt":1763174762968,"isModerator":false},{"levelId":"119601181","format":"webp","uploadedBy":"Robert55GD","uploadedAt":1763174756360,"isModerator":false},{"levelId":"11940","format":"webp","uploadedBy":"Robert55GD","uploadedAt":1763174754104,"isModerator":false},{"levelId":"119259720","format":"webp","uploadedBy":"Robert55GD","uploadedAt":1763174752385,"isModerator":false},{"levelId":"118704447","format":"webp","uploadedBy":"Robert55GD","uploadedAt":1763174750428,"isModerator":false},{"levelId":"118467875","format":"webp","uploadedBy":"Robert55GD","uploadedAt":1763174748776,"isModerator":false},{"levelId":"117692206","format":"webp","uploadedBy":"Robert55GD","uploadedAt":1763174743146,"isModerator":false},{"levelId":"117630745","format":"webp","uploadedBy":"Robert55GD","uploadedAt":1763174738226,"isModerator":false},{"levelId":"117043292","format":"webp","uploadedBy":"Robert55GD","uploadedAt":1763174732365,"isModerator":false},{"levelId":"116284799","format":"webp","uploadedBy":"Robert55GD","uploadedAt":1763174730243,"isModerator":false},{"levelId":"116270632","format":"webp","uploadedBy":"Robert55GD","uploadedAt":1763174728330,"isModerator":false},{"levelId":"116217763","format":"webp","uploadedBy":"Robert55GD","uploadedAt":1763174725557,"isModerator":false},{"levelId":"115050645","format":"webp","uploadedBy":"Robert55GD","uploadedAt":1763174723018,"isModerator":false},{"levelId":"115050301","format":"webp","uploadedBy":"Robert55GD","uploadedAt":1763174721079,"isModerator":false},{"levelId":"114032680","format":"webp","uploadedBy":"Robert55GD","uploadedAt":1763174719127,"isModerator":false},{"levelId":"113774286","format":"webp","uploadedBy":"Robert55GD","uploadedAt":1763174717320,"isModerator":false},{"levelId":"113511091","format":"webp","uploadedBy":"Robert55GD","uploadedAt":1763174715264,"isModerator":false},{"levelId":"113473543","format":"webp","uploadedBy":"Robert55GD","uploadedAt":1763174711544,"isModerator":false},{"levelId":"113122387","format":"webp","uploadedBy":"Robert55GD","uploadedAt":1763174709851,"isModerator":false},{"levelId":"11280109","format":"webp","uploadedBy":"Robert55GD","uploadedAt":1763174708055,"isModerator":false},{"levelId":"112755295","format":"webp","uploadedBy":"Robert55GD","uploadedAt":1763174697790,"isModerator":false},{"levelId":"112158428","format":"webp","uploadedBy":"Robert55GD","uploadedAt":1763174695898,"isModerator":false},{"levelId":"111761303","format":"webp","uploadedBy":"Robert55GD","uploadedAt":1763174694042,"isModerator":false},{"levelId":"110610038","format":"webp","uploadedBy":"Robert55GD","uploadedAt":1763174604017,"isModerator":false},{"levelId":"110022482","format":"webp","uploadedBy":"Robert55GD","uploadedAt":1763174601821,"isModerator":false},{"levelId":"109020681","format":"webp","uploadedBy":"Robert55GD","uploadedAt":1763174599520,"isModerator":false},{"levelId":"108580202","format":"webp","uploadedBy":"Robert55GD","uploadedAt":1763174597269,"isModerator":false},{"levelId":"108580172","format":"webp","uploadedBy":"Robert55GD","uploadedAt":1763174595253,"isModerator":false},{"levelId":"105797505","format":"webp","uploadedBy":"Robert55GD","uploadedAt":1763174593530,"isModerator":false},{"levelId":"105797326","format":"webp","uploadedBy":"Robert55GD","uploadedAt":1763174591595,"isModerator":false},{"levelId":"105189715","format":"webp","uploadedBy":"Robert55GD","uploadedAt":1763174589623,"isModerator":false},{"levelId":"104903779","format":"webp","uploadedBy":"Robert55GD","uploadedAt":1763174587822,"isModerator":false},{"levelId":"104903768","format":"webp","uploadedBy":"Robert55GD","uploadedAt":1763174586216,"isModerator":false},{"levelId":"103043175","format":"webp","uploadedBy":"Robert55GD","uploadedAt":1763174584216,"isModerator":false},{"levelId":"102010564","format":"webp","uploadedBy":"Robert55GD","uploadedAt":1763174579126,"isModerator":false},{"levelId":"101601210","format":"webp","uploadedBy":"Robert55GD","uploadedAt":1763174577376,"isModerator":false},{"levelId":"100475191","format":"webp","uploadedBy":"Robert55GD","uploadedAt":1763174573747,"isModerator":false},{"levelId":"127436719","format":"webp","uploadedBy":"FlozWer","uploadedAt":1763173088438,"isModerator":false},{"levelId":"86177226","format":"webp","uploadedBy":"FlozWer","uploadedAt":1763169088481,"isModerator":false},{"levelId":"89586053","format":"webp","uploadedBy":"FlozWer","uploadedAt":1763169027135,"isModerator":false},{"levelId":"105711757","format":"webp","uploadedBy":"FlozWer","uploadedAt":1763168955931,"isModerator":false},{"levelId":"107110380","format":"webp","uploadedBy":"FlozWer","uploadedAt":1763168862816,"isModerator":false},{"levelId":"107506579","format":"webp","uploadedBy":"FlozWer","uploadedAt":1763168817131,"isModerator":false},{"levelId":"107902484","format":"webp","uploadedBy":"FlozWer","uploadedAt":1763168666633,"isModerator":false},{"levelId":"109880290","format":"webp","uploadedBy":"FlozWer","uploadedAt":1763168641612,"isModerator":false},{"levelId":"110019075","format":"webp","uploadedBy":"FlozWer","uploadedAt":1763168619936,"isModerator":false},{"levelId":"110225752","format":"webp","uploadedBy":"FlozWer","uploadedAt":1763168526569,"isModerator":false},{"levelId":"110998214","format":"webp","uploadedBy":"FlozWer","uploadedAt":1763168351617,"isModerator":false},{"levelId":"115018298","format":"webp","uploadedBy":"FlozWer","uploadedAt":1763168175648,"isModerator":false},{"levelId":"115710733","format":"webp","uploadedBy":"FlozWer","uploadedAt":1763168078677,"isModerator":false},{"levelId":"120235465","format":"webp","uploadedBy":"FlozWer","uploadedAt":1763167934732,"isModerator":false},{"levelId":"127746356","format":"webp","uploadedBy":"Robert55GD","uploadedAt":1763162749158,"isModerator":false}],"total":107,"limit":100,"offset":0,"hasMore":true}